{
  "dbusername":"root",
  "dbpassword":"52b0fdbff86c9a2d9e8a977f",
  "dbHostname":"ec2-54-169-245-152.ap-southeast-1.compute.amazonaws.com",
  "dbPort": 3306,
  "dbName": "wedbeacon",
  "dbConnLimit": 15,
  "cryptoPassword": "1q2w3e4r%T"
}
